module gitlab.com/siemonster-kubernetes/confd

go 1.19

require (
	github.com/BurntSushi/toml v0.3.1
	github.com/aws/aws-sdk-go v1.44.300
	github.com/fsnotify/fsnotify v1.5.4
	github.com/garyburd/redigo v1.6.4
	github.com/hashicorp/consul/api v1.15.2
	github.com/hashicorp/vault/api v1.8.0
	github.com/kelseyhightower/memkv v0.1.1
	github.com/samuel/go-zookeeper v0.0.0-20201211165307-7117e9ea2414
	github.com/sirupsen/logrus v1.6.0
	go.etcd.io/etcd/client/v3 v3.5.5
	gopkg.in/yaml.v2 v2.4.0
)

require (
	github.com/armon/go-metrics v0.3.10 // indirect
	github.com/armon/go-radix v1.0.0 // indirect
	github.com/cenkalti/backoff/v3 v3.0.0 // indirect
	github.com/coreos/go-semver v0.3.0 // indirect
	github.com/coreos/go-systemd/v22 v22.3.2 // indirect
	github.com/fatih/color v1.9.0 // indirect
	github.com/gogo/protobuf v1.3.2 // indirect
	github.com/golang/protobuf v1.5.2 // indirect
	github.com/golang/snappy v0.0.4 // indirect
	github.com/hashicorp/errwrap v1.1.0 // indirect
	github.com/hashicorp/go-cleanhttp v0.5.2 // indirect
	github.com/hashicorp/go-hclog v0.16.2 // indirect
	github.com/hashicorp/go-immutable-radix v1.3.1 // indirect
	github.com/hashicorp/go-multierror v1.1.1 // indirect
	github.com/hashicorp/go-plugin v1.4.3 // indirect
	github.com/hashicorp/go-retryablehttp v0.6.6 // indirect
	github.com/hashicorp/go-rootcerts v1.0.2 // indirect
	github.com/hashicorp/go-secure-stdlib/mlock v0.1.1 // indirect
	github.com/hashicorp/go-secure-stdlib/parseutil v0.1.6 // indirect
	github.com/hashicorp/go-secure-stdlib/strutil v0.1.2 // indirect
	github.com/hashicorp/go-sockaddr v1.0.2 // indirect
	github.com/hashicorp/go-uuid v1.0.2 // indirect
	github.com/hashicorp/go-version v1.2.0 // indirect
	github.com/hashicorp/golang-lru v0.5.4 // indirect
	github.com/hashicorp/hcl v1.0.0 // indirect
	github.com/hashicorp/serf v0.9.7 // indirect
	github.com/hashicorp/vault/sdk v0.6.0 // indirect
	github.com/hashicorp/yamux v0.0.0-20180604194846-3520598351bb // indirect
	github.com/jmespath/go-jmespath v0.4.0 // indirect
	github.com/konsorten/go-windows-terminal-sequences v1.0.3 // indirect
	github.com/mattn/go-colorable v0.1.6 // indirect
	github.com/mattn/go-isatty v0.0.12 // indirect
	github.com/mitchellh/copystructure v1.0.0 // indirect
	github.com/mitchellh/go-homedir v1.1.0 // indirect
	github.com/mitchellh/go-testing-interface v1.0.0 // indirect
	github.com/mitchellh/mapstructure v1.5.0 // indirect
	github.com/mitchellh/reflectwalk v1.0.0 // indirect
	github.com/oklog/run v1.0.0 // indirect
	github.com/pierrec/lz4 v2.5.2+incompatible // indirect
	github.com/ryanuber/go-glob v1.0.0 // indirect
	go.etcd.io/etcd/api/v3 v3.5.5 // indirect
	go.etcd.io/etcd/client/pkg/v3 v3.5.5 // indirect
	go.uber.org/atomic v1.9.0 // indirect
	go.uber.org/multierr v1.6.0 // indirect
	go.uber.org/zap v1.17.0 // indirect
	golang.org/x/crypto v0.0.0-20210921155107-089bfa567519 // indirect
	golang.org/x/net v0.1.0 // indirect
	golang.org/x/sys v0.1.0 // indirect
	golang.org/x/text v0.4.0 // indirect
	golang.org/x/time v0.0.0-20200416051211-89c76fbcd5d1 // indirect
	google.golang.org/genproto v0.0.0-20210602131652-f16073e35f0c // indirect
	google.golang.org/grpc v1.41.0 // indirect
	google.golang.org/protobuf v1.26.0 // indirect
	gopkg.in/square/go-jose.v2 v2.5.1 // indirect
)
